Demographic Insights into England’s Household Census Conducted in 2021
…
[1] "C:/Users/USER/Documents/DATA SCIENCE"

Code
# Importing dataset and assigning it the variable name 'hhc_data'
hhc_data <- read_csv("data-1.csv",show_col_types = FALSE)

# Formatting variable names 
library(janitor)
hhc_data1 <- clean_names(hhc_data)

# Handling missing values
hhc_data_cleaned <- na.omit(hhc_data1)
hhc_data_cleaned

# A tibble: 21,237 × 9
      id person_id   age mar_stat        inc female    h8 eth      highest_ed   
   <dbl>     <dbl> <dbl> <chr>         <dbl>  <dbl> <dbl> <chr>    <chr>        
 1    37         1    20 Never married 10000      1     0 White    Some HE      
 2    37         2    19 Never married  5300      1     0 White    Some HE      
 3    37         3    19 Never married  4700      1     0 Black    Some HE      
 4   241         1    50 Never married 32500      1     0 White    Masters or h…
 5   242         1    29 Never married 30000      1     0 White    Bachelors De…
 6   377         1    69 Never married 51900      1     0 White    Less than Se…
 7   418         1    59 Widowed       12200      1     0 White    Less than Se…
 8   465         1    55 Separated         0      0     0 Black    Some HE      
 9   465         2    47 Never married  2600      1     0 Black    Less than Se…
10   484         1    33 married       16800      0     0 Hispanic Secondary Sc…
# ℹ 21,227 more rows
…
